\relax 
\@writefile{toc}{\contentsline {section}{\numberline {I}Introduction}{1}}
\newlabel{sec:introduction}{{I}{1}}
\@writefile{toc}{\contentsline {section}{\numberline {II}Motivation}{2}}
\newlabel{motivation}{{II}{2}}
\@writefile{toc}{\contentsline {subsection}{\numberline {\unhbox \voidb@x \hbox {II-A}}Average Number of Requests}{2}}
\@writefile{lof}{\contentsline {figure}{\numberline {1}{\ignorespaces Average number of requests per load or store instruction\relax }}{2}}
\providecommand*\caption@xref[2]{\@setref\relax\@undefined{#1}}
\newlabel{average_request}{{1}{2}}
\@writefile{lof}{\contentsline {figure}{\numberline {2}{\ignorespaces Request size ratios for 32 requests of 32 bytes, 64 bytes and 128 bytes\relax }}{2}}
\newlabel{request_ratio}{{2}{2}}
\@writefile{toc}{\contentsline {subsection}{\numberline {\unhbox \voidb@x \hbox {II-B}}Request Size Ratio}{2}}
\@writefile{lof}{\contentsline {figure}{\numberline {3}{\ignorespaces Cache efficiency for the baseline GPU\relax }}{3}}
\newlabel{cache_efficiency}{{3}{3}}
\@writefile{toc}{\contentsline {subsection}{\numberline {\unhbox \voidb@x \hbox {II-C}}Cache Efficiency}{3}}
\newlabel{cache_efficiency_equation}{{1}{3}}
\@writefile{toc}{\contentsline {subsection}{\numberline {\unhbox \voidb@x \hbox {II-D}}Reducing The Size of L1 Cache Line}{3}}
\@writefile{lof}{\contentsline {figure}{\numberline {4}{\ignorespaces Performance degradation when changing the size of L1 cache line to 32 bytes\relax }}{3}}
\newlabel{downside_32B_cacheline}{{4}{3}}
\@writefile{toc}{\contentsline {subsection}{\numberline {\unhbox \voidb@x \hbox {II-E}}Idle Shared Memory}{3}}
\@writefile{toc}{\contentsline {section}{\numberline {III}Implementation}{3}}
\newlabel{implementation}{{III}{3}}
\newlabel{unused_shared_memory_48KB}{{5a}{4}}
\newlabel{sub@unused_shared_memory_48KB}{{(a)}{a}}
\newlabel{unused_shared_memory_16KB}{{5b}{4}}
\newlabel{sub@unused_shared_memory_16KB}{{(b)}{b}}
\@writefile{lof}{\contentsline {figure}{\numberline {5}{\ignorespaces Idle shared memory\relax }}{4}}
\@writefile{lof}{\contentsline {subfigure}{\numberline{(a)}{\ignorespaces {Idle shared memory size in 48KB}}}{4}}
\@writefile{lof}{\contentsline {subfigure}{\numberline{(b)}{\ignorespaces {Idle shared memory size in 16KB}}}{4}}
\newlabel{idle_shared_memory}{{5}{4}}
\@writefile{lot}{\contentsline {table}{\numberline {I}{\ignorespaces Baseline cache configuration\relax }}{4}}
\newlabel{baseline cache}{{I}{4}}
\@writefile{toc}{\contentsline {subsection}{\numberline {\unhbox \voidb@x \hbox {III-A}}Tag Design}{4}}
\newlabel{chunk_tag_16bit}{{6a}{4}}
\newlabel{sub@chunk_tag_16bit}{{(a)}{a}}
\newlabel{chunk_tag_32bit}{{6b}{4}}
\newlabel{sub@chunk_tag_32bit}{{(b)}{b}}
\@writefile{lof}{\contentsline {figure}{\numberline {6}{\ignorespaces Context of tags stored in shared memory\relax }}{4}}
\@writefile{lof}{\contentsline {subfigure}{\numberline{(a)}{\ignorespaces {16-bit chunk-tag}}}{4}}
\@writefile{lof}{\contentsline {subfigure}{\numberline{(b)}{\ignorespaces {32-bit chunk-tag}}}{4}}
\newlabel{chunk_tag}{{6}{4}}
\@writefile{toc}{\contentsline {subsection}{\numberline {\unhbox \voidb@x \hbox {III-B}}Modification to Shared Memory}{4}}
\@writefile{lof}{\contentsline {figure}{\numberline {7}{\ignorespaces shared memory address partition\relax }}{5}}
\newlabel{shared_memory_address_mapping}{{7}{5}}
\@writefile{lot}{\contentsline {table}{\numberline {II}{\ignorespaces  Address mapping for 48KB shared memory and 16KB L1 cache\relax }}{5}}
\newlabel{mapping_table_48KB}{{II}{5}}
\@writefile{toc}{\contentsline {subsection}{\numberline {\unhbox \voidb@x \hbox {III-C}}Cache Architecture}{5}}
\@writefile{lot}{\contentsline {table}{\numberline {III}{\ignorespaces  Address mapping for 16KB shared memory and 48KB L1 cache\relax }}{5}}
\newlabel{mapping_table_16KB}{{III}{5}}
\newlabel{16kb}{{2}{5}}
\newlabel{48kb}{{3}{5}}
\citation{GPGPU-SIM}
\citation{AMOEBA}
\@writefile{lof}{\contentsline {figure}{\numberline {8}{\ignorespaces Cache architecture\relax }}{6}}
\newlabel{cache_architecture}{{8}{6}}
\@writefile{lof}{\contentsline {figure}{\numberline {9}{\ignorespaces Address decoder\relax }}{6}}
\newlabel{address_decoder}{{9}{6}}
\newlabel{set_num}{{4}{6}}
\@writefile{toc}{\contentsline {subsection}{\numberline {\unhbox \voidb@x \hbox {III-D}}LRU State}{6}}
\@writefile{toc}{\contentsline {subsection}{\numberline {\unhbox \voidb@x \hbox {III-E}}Cache Coherence}{6}}
\@writefile{toc}{\contentsline {section}{\numberline {IV}Methodology}{6}}
\newlabel{methodology}{{IV}{6}}
\citation{RODINIA}
\citation{RODINIA}
\citation{RODINIA}
\citation{PARBOIL}
\citation{LONESTAR}
\citation{LONESTAR}
\citation{MARS}
\citation{MARS}
\citation{MARS}
\citation{MARS}
\citation{MARS}
\citation{AGM}
\citation{RODINIA}
\citation{RODINIA}
\citation{RODINIA}
\citation{RODINIA}
\citation{RODINIA}
\citation{RODINIA}
\citation{RODINIA}
\citation{RODINIA}
\citation{RODINIA}
\citation{RODINIA}
\@writefile{lot}{\contentsline {table}{\numberline {IV}{\ignorespaces Benchmarks\relax }}{7}}
\newlabel{benchmark}{{IV}{7}}
\@writefile{lot}{\contentsline {table}{\numberline {V}{\ignorespaces GPGPU-Sim configuration\relax }}{7}}
\newlabel{config}{{V}{7}}
\@writefile{toc}{\contentsline {section}{\numberline {V}Experimental results}{7}}
\newlabel{result}{{V}{7}}
\@writefile{toc}{\contentsline {subsection}{\numberline {\unhbox \voidb@x \hbox {V-A}}Performance}{7}}
\newlabel{small_cacheline_a}{{10a}{7}}
\newlabel{sub@small_cacheline_a}{{(a)}{a}}
\newlabel{small_cacheline_b}{{10b}{7}}
\newlabel{sub@small_cacheline_b}{{(b)}{b}}
\@writefile{lof}{\contentsline {figure}{\numberline {10}{\ignorespaces Normalized IPCs when using cache lines of 32 bytes and 64 bytes\relax }}{7}}
\@writefile{lof}{\contentsline {subfigure}{\numberline{(a)}{\ignorespaces {LOW-SL-CE applications}}}{7}}
\@writefile{lof}{\contentsline {subfigure}{\numberline{(b)}{\ignorespaces {NON-LOW-SL-CE applications}}}{7}}
\newlabel{small_cacheline}{{10}{7}}
\@writefile{toc}{\contentsline {subsubsection}{\numberline {\unhbox \voidb@x \hbox {V-A}1}16KB L1 cache and 48KB shared memory}{7}}
\newlabel{low_sl_ce_16KB_cache}{{11a}{8}}
\newlabel{sub@low_sl_ce_16KB_cache}{{(a)}{a}}
\newlabel{non_low_sl_ce_16KB_cache}{{11b}{8}}
\newlabel{sub@non_low_sl_ce_16KB_cache}{{(b)}{b}}
\@writefile{lof}{\contentsline {figure}{\numberline {11}{\ignorespaces Comparisons of Normalized IPCs when L1 cache is 16KB\relax }}{8}}
\@writefile{lof}{\contentsline {subfigure}{\numberline{(a)}{\ignorespaces {LOW-SL-CE applications}}}{8}}
\@writefile{lof}{\contentsline {subfigure}{\numberline{(b)}{\ignorespaces {NON-LOW-SL-CE applications}}}{8}}
\newlabel{ipc_16KB_cache}{{11}{8}}
\@writefile{toc}{\contentsline {subsubsection}{\numberline {\unhbox \voidb@x \hbox {V-A}2}48KB L1 cache and 16KB shared memory}{8}}
\newlabel{low_sl_ce_48KB_cache}{{12a}{8}}
\newlabel{sub@low_sl_ce_48KB_cache}{{(a)}{a}}
\newlabel{non_low_sl_ce_48KB_cache}{{12b}{8}}
\newlabel{sub@non_low_sl_ce_48KB_cache}{{(b)}{b}}
\@writefile{lof}{\contentsline {figure}{\numberline {12}{\ignorespaces Comparisons of Normalized IPCs when L1 cache is 48KB\relax }}{8}}
\@writefile{lof}{\contentsline {subfigure}{\numberline{(a)}{\ignorespaces {LOW-SL-CE applications}}}{8}}
\@writefile{lof}{\contentsline {subfigure}{\numberline{(b)}{\ignorespaces {NON-LOW-SL-CE applications}}}{8}}
\newlabel{ipc_48KB_cache}{{12}{8}}
\@writefile{toc}{\contentsline {subsection}{\numberline {\unhbox \voidb@x \hbox {V-B}}L1 Cache Miss Rate}{8}}
\citation{CACTI}
\citation{CCWS}
\citation{DAWS}
\citation{ACCA}
\citation{CBWT}
\citation{CSDCB}
\citation{LAMH}
\citation{SC}
\citation{LAMH}
\citation{DSC}
\citation{AMOEBA}
\@writefile{toc}{\contentsline {subsection}{\numberline {\unhbox \voidb@x \hbox {V-C}}Cache Efficiency}{9}}
\@writefile{toc}{\contentsline {subsection}{\numberline {\unhbox \voidb@x \hbox {V-D}}Overheand}{9}}
\@writefile{toc}{\contentsline {subsubsection}{\numberline {\unhbox \voidb@x \hbox {V-D}1}Hardware Overhead}{9}}
\@writefile{toc}{\contentsline {subsubsection}{\numberline {\unhbox \voidb@x \hbox {V-D}2}Power and Energy}{9}}
\@writefile{toc}{\contentsline {section}{\numberline {VI}Related Work}{9}}
\newlabel{relatedwork}{{VI}{9}}
\@writefile{toc}{\contentsline {section}{\numberline {VII}Conclusion}{9}}
\newlabel{conclusion}{{VII}{9}}
\citation{bstctl:nodash}
\citation{bstctl:simpurl}
\bibstyle{IEEEtranS}
\bibdata{references}
\bibcite{GPGPU-SIM}{1}
\bibcite{RODINIA}{2}
\bibcite{CBWT}{3}
\bibcite{AGM}{4}
\bibcite{MARS}{5}
\bibcite{SC}{6}
\bibcite{LONESTAR}{7}
\bibcite{LAMH}{8}
\bibcite{CCWS}{9}
\bibcite{DAWS}{10}
\bibcite{DSC}{11}
\bibcite{CSDCB}{12}
\@writefile{lof}{\contentsline {figure}{\numberline {13}{\ignorespaces Cache miss rate\relax }}{10}}
\newlabel{cache_miss_rate}{{13}{10}}
\@writefile{lof}{\contentsline {figure}{\numberline {14}{\ignorespaces Cache efficiency comparison\relax }}{10}}
\newlabel{cache_efficiency_comparison}{{14}{10}}
\@writefile{toc}{\contentsline {section}{References}{10}}
\bibcite{ACCA}{13}
